com\mail\sample\emailnotification\CustomEmailService.class
org\myorg\Email\EmailNotification\core\servlets\SimpleServlet.class
org\myorg\Email\EmailNotification\core\models\HelloWorldModel.class
org\myorg\Email\EmailNotification\core\listeners\SimpleResourceListener.class
snippet\Snippet.class
org\myorg\Email\EmailNotification\core\package-info.class
org\myorg\Email\EmailNotification\core\schedulers\SimpleScheduledTask.class
org\myorg\Email\EmailNotification\core\filters\LoggingFilter.class
